Componentes/INST_MEM/simulation/qsim/INST_MEM.msim.vcd
$comment
	File created using the following command:
		vcd file INST_MEM.msim.vcd -direction
$end
$date
	Tue May 06 21:14:47 2025
$end
$version
	ModelSim Version 10.1d
$end
$timescale
	1ps
$end
$scope module INST_MEM_vlg_vec_tst $end
$var reg 32 ! A [31:0] $end
$var wire 1 " RD [31] $end
$var wire 1 # RD [30] $end
$var wire 1 $ RD [29] $end
$var wire 1 % RD [28] $end
$var wire 1 & RD [27] $end
$var wire 1 ' RD [26] $end
$var wire 1 ( RD [25] $end
$var wire 1 ) RD [24] $end
$var wire 1 * RD [23] $end
$var wire 1 + RD [22] $end
$var wire 1 , RD [21] $end
$var wire 1 - RD [20] $end
$var wire 1 . RD [19] $end
$var wire 1 / RD [18] $end
$var wire 1 0 RD [17] $end
$var wire 1 1 RD [16] $end
$var wire 1 2 RD [15] $end
$var wire 1 3 RD [14] $end
$var wire 1 4 RD [13] $end
$var wire 1 5 RD [12] $end
$var wire 1 6 RD [11] $end
$var wire 1 7 RD [10] $end
$var wire 1 8 RD [9] $end
$var wire 1 9 RD [8] $end
$var wire 1 : RD [7] $end
$var wire 1 ; RD [6] $end
$var wire 1 < RD [5] $end
$var wire 1 = RD [4] $end
$var wire 1 > RD [3] $end
$var wire 1 ? RD [2] $end
$var wire 1 @ RD [1] $end
$var wire 1 A RD [0] $end
$var wire 1 B sampler $end
$scope module i1 $end
$var wire 1 C gnd $end
$var wire 1 D vcc $end
$var wire 1 E unknown $end
$var tri1 1 F devclrn $end
$var tri1 1 G devpor $end
$var tri1 1 H devoe $end
$var wire 1 I Mux18~0_combout $end
$var wire 1 J Mux31~1_combout $end
$var wire 1 K Mux31~2_combout $end
$var wire 1 L Mux26~5_combout $end
$var wire 1 M Mux10~0_combout $end
$var wire 1 N Mux2~3_combout $end
$var wire 1 O A[11]~input_o $end
$var wire 1 P A[12]~input_o $end
$var wire 1 Q A[13]~input_o $end
$var wire 1 R A[14]~input_o $end
$var wire 1 S A[15]~input_o $end
$var wire 1 T A[16]~input_o $end
$var wire 1 U A[17]~input_o $end
$var wire 1 V A[18]~input_o $end
$var wire 1 W A[19]~input_o $end
$var wire 1 X A[20]~input_o $end
$var wire 1 Y A[21]~input_o $end
$var wire 1 Z A[22]~input_o $end
$var wire 1 [ A[23]~input_o $end
$var wire 1 \ A[24]~input_o $end
$var wire 1 ] A[25]~input_o $end
$var wire 1 ^ A[26]~input_o $end
$var wire 1 _ A[27]~input_o $end
$var wire 1 ` A[28]~input_o $end
$var wire 1 a A[29]~input_o $end
$var wire 1 b A[30]~input_o $end
$var wire 1 c A[31]~input_o $end
$var wire 1 d A[6]~input_o $end
$var wire 1 e RD[0]~output_o $end
$var wire 1 f RD[1]~output_o $end
$var wire 1 g RD[2]~output_o $end
$var wire 1 h RD[3]~output_o $end
$var wire 1 i RD[4]~output_o $end
$var wire 1 j RD[5]~output_o $end
$var wire 1 k RD[6]~output_o $end
$var wire 1 l RD[7]~output_o $end
$var wire 1 m RD[8]~output_o $end
$var wire 1 n RD[9]~output_o $end
$var wire 1 o RD[10]~output_o $end
$var wire 1 p RD[11]~output_o $end
$var wire 1 q RD[12]~output_o $end
$var wire 1 r RD[13]~output_o $end
$var wire 1 s RD[14]~output_o $end
$var wire 1 t RD[15]~output_o $end
$var wire 1 u RD[16]~output_o $end
$var wire 1 v RD[17]~output_o $end
$var wire 1 w RD[18]~output_o $end
$var wire 1 x RD[19]~output_o $end
$var wire 1 y RD[20]~output_o $end
$var wire 1 z RD[21]~output_o $end
$var wire 1 { RD[22]~output_o $end
$var wire 1 | RD[23]~output_o $end
$var wire 1 } RD[24]~output_o $end
$var wire 1 ~ RD[25]~output_o $end
$var wire 1 !! RD[26]~output_o $end
$var wire 1 "! RD[27]~output_o $end
$var wire 1 #! RD[28]~output_o $end
$var wire 1 $! RD[29]~output_o $end
$var wire 1 %! RD[30]~output_o $end
$var wire 1 &! RD[31]~output_o $end
$var wire 1 '! A[8]~input_o $end
$var wire 1 (! A[9]~input_o $end
$var wire 1 )! A[1]~input_o $end
$var wire 1 *! Mux31~3_combout $end
$var wire 1 +! Mux31~5_combout $end
$var wire 1 ,! A[0]~input_o $end
$var wire 1 -! A[7]~input_o $end
$var wire 1 .! A[10]~input_o $end
$var wire 1 /! Mux2~0_combout $end
$var wire 1 0! Mux31~6_combout $end
$var wire 1 1! A[4]~input_o $end
$var wire 1 2! Mux14~0_combout $end
$var wire 1 3! A[5]~input_o $end
$var wire 1 4! A[2]~input_o $end
$var wire 1 5! A[3]~input_o $end
$var wire 1 6! Mux30~1_combout $end
$var wire 1 7! Mux30~0_combout $end
$var wire 1 8! Mux30~2_combout $end
$var wire 1 9! Mux29~2_combout $end
$var wire 1 :! Mux21~0_combout $end
$var wire 1 ;! Mux29~3_combout $end
$var wire 1 <! Mux29~4_combout $end
$var wire 1 =! Mux28~1_combout $end
$var wire 1 >! Mux28~3_combout $end
$var wire 1 ?! Mux28~2_combout $end
$var wire 1 @! Mux28~4_combout $end
$var wire 1 A! Mux2~1_combout $end
$var wire 1 B! Mux28~0_combout $end
$var wire 1 C! Mux28~5_combout $end
$var wire 1 D! Mux27~2_combout $end
$var wire 1 E! Mux27~3_combout $end
$var wire 1 F! Mux27~4_combout $end
$var wire 1 G! Mux26~3_combout $end
$var wire 1 H! Mux26~4_combout $end
$var wire 1 I! Mux26~6_combout $end
$var wire 1 J! Mux26~0_combout $end
$var wire 1 K! Mux26~1_combout $end
$var wire 1 L! Mux26~2_combout $end
$var wire 1 M! Mux26~7_combout $end
$var wire 1 N! Mux25~0_combout $end
$var wire 1 O! Mux25~1_combout $end
$var wire 1 P! Mux25~2_combout $end
$var wire 1 Q! Mux25~3_combout $end
$var wire 1 R! Mux24~1_combout $end
$var wire 1 S! Mux28~6_combout $end
$var wire 1 T! Mux24~0_combout $end
$var wire 1 U! Mux24~2_combout $end
$var wire 1 V! Mux23~0_combout $end
$var wire 1 W! Mux6~0_combout $end
$var wire 1 X! Mux22~0_combout $end
$var wire 1 Y! Mux21~1_combout $end
$var wire 1 Z! Mux21~2_combout $end
$var wire 1 [! Mux21~3_combout $end
$var wire 1 \! Mux20~1_combout $end
$var wire 1 ]! Mux20~3_combout $end
$var wire 1 ^! Mux20~2_combout $end
$var wire 1 _! Mux20~0_combout $end
$var wire 1 `! Mux20~4_combout $end
$var wire 1 a! Mux19~0_combout $end
$var wire 1 b! Mux19~1_combout $end
$var wire 1 c! Mux19~2_combout $end
$var wire 1 d! Mux19~3_combout $end
$var wire 1 e! Mux18~3_combout $end
$var wire 1 f! Mux18~4_combout $end
$var wire 1 g! Mux18~5_combout $end
$var wire 1 h! Mux18~2_combout $end
$var wire 1 i! Mux18~6_combout $end
$var wire 1 j! Mux31~0_combout $end
$var wire 1 k! Mux18~1_combout $end
$var wire 1 l! Mux18~7_combout $end
$var wire 1 m! Mux18~8_combout $end
$var wire 1 n! Mux21~4_combout $end
$var wire 1 o! Mux17~0_combout $end
$var wire 1 p! Mux25~4_combout $end
$var wire 1 q! Mux17~1_combout $end
$var wire 1 r! Mux16~1_combout $end
$var wire 1 s! Mux5~2_combout $end
$var wire 1 t! Mux16~0_combout $end
$var wire 1 u! Mux16~2_combout $end
$var wire 1 v! Mux15~0_combout $end
$var wire 1 w! Mux31~4_combout $end
$var wire 1 x! Mux15~1_combout $end
$var wire 1 y! Mux14~1_combout $end
$var wire 1 z! Mux14~2_combout $end
$var wire 1 {! Mux14~3_combout $end
$var wire 1 |! Mux13~2_combout $end
$var wire 1 }! Mux12~0_combout $end
$var wire 1 ~! Mux12~1_combout $end
$var wire 1 !" Mux12~2_combout $end
$var wire 1 "" Mux12~3_combout $end
$var wire 1 #" Mux11~2_combout $end
$var wire 1 $" Mux11~0_combout $end
$var wire 1 %" Mux11~1_combout $end
$var wire 1 &" Mux11~3_combout $end
$var wire 1 '" Mux10~3_combout $end
$var wire 1 (" Mux10~4_combout $end
$var wire 1 )" Mux10~1_combout $end
$var wire 1 *" Mux10~2_combout $end
$var wire 1 +" Mux10~5_combout $end
$var wire 1 ," Mux9~4_combout $end
$var wire 1 -" Mux9~2_combout $end
$var wire 1 ." Mux9~3_combout $end
$var wire 1 /" Mux8~0_combout $end
$var wire 1 0" Mux8~1_combout $end
$var wire 1 1" Mux8~2_combout $end
$var wire 1 2" Mux7~0_combout $end
$var wire 1 3" Mux6~1_combout $end
$var wire 1 4" Mux5~6_combout $end
$var wire 1 5" Mux5~3_combout $end
$var wire 1 6" Mux5~4_combout $end
$var wire 1 7" Mux5~5_combout $end
$var wire 1 8" Mux4~0_combout $end
$var wire 1 9" Mux4~1_combout $end
$var wire 1 :" Mux4~3_combout $end
$var wire 1 ;" Mux4~2_combout $end
$var wire 1 <" Mux4~4_combout $end
$var wire 1 =" Mux3~0_combout $end
$var wire 1 >" Mux3~1_combout $end
$var wire 1 ?" Mux3~2_combout $end
$var wire 1 @" Mux2~5_combout $end
$var wire 1 A" Mux2~2_combout $end
$var wire 1 B" Mux2~4_combout $end
$var wire 1 C" Mux2~6_combout $end
$var wire 1 D" Mux1~0_combout $end
$var wire 1 E" Mux1~1_combout $end
$var wire 1 F" Mux0~0_combout $end
$var wire 1 G" Mux0~1_combout $end
$upscope $end
$upscope $end
$enddefinitions $end
#0
$dumpvars
b10011010000001110001001100101101 !
0A
0@
0?
0>
0=
0<
0;
0:
09
08
07
06
05
04
03
02
01
00
0/
0.
0-
0,
0+
0*
0)
0(
0'
0&
0%
0$
0#
0"
xB
0C
1D
xE
1F
1G
1H
0I
0J
0K
0L
1M
1N
0O
1P
0Q
0R
0S
1T
1U
1V
0W
0X
0Y
0Z
0[
0\
1]
0^
1_
1`
0a
0b
1c
0d
0e
0f
0g
0h
0i
0j
0k
0l
0m
0n
0o
0p
0q
0r
0s
0t
0u
0v
0w
0x
0y
0z
0{
0|
0}
0~
0!!
0"!
0#!
0$!
0%!
0&!
1'!
1(!
0)!
0*!
1+!
1,!
0-!
0.!
0/!
00!
01!
02!
13!
14!
15!
06!
07!
08!
09!
0:!
1;!
0<!
0=!
0>!
0?!
0@!
0A!
0B!
0C!
1D!
1E!
0F!
0G!
0H!
0I!
0J!
0K!
0L!
0M!
0N!
0O!
1P!
0Q!
0R!
0S!
0T!
0U!
0V!
0W!
0X!
0Y!
0Z!
0[!
0\!
1]!
0^!
1_!
0`!
0a!
0b!
0c!
0d!
0e!
0f!
0g!
0h!
0i!
0j!
0k!
0l!
0m!
0n!
0o!
0p!
0q!
1r!
0s!
0t!
0u!
1v!
1w!
0x!
0y!
1z!
0{!
0|!
0}!
1~!
0!"
0""
1#"
0$"
0%"
0&"
1'"
0("
1)"
0*"
0+"
0,"
1-"
0."
0/"
00"
01"
02"
03"
04"
05"
06"
07"
18"
19"
0:"
1;"
0<"
0="
0>"
0?"
0@"
0A"
0B"
0C"
0D"
0E"
1F"
0G"
$end
#10000
b11011010000001110001001100101101 !
b11111010000001110001001100101101 !
b11110010000001110001001100101101 !
b11110110000001110001001100101101 !
b11110100000001110001001100101101 !
b11110100000000110001001100101101 !
b11110100000000111001001100101101 !
b11110100000000111011001100101101 !
b11110100000000111010001100101101 !
b11110100000000111010000100101101 !
b11110100000000111010000000101101 !
b11110100000000111010000000111101 !
b11110100000000111010000000111001 !
b11110100000000111010000000111011 !
b11110100000000111010000000111010 !
0,!
1)!
04!
11!
0'!
0(!
0P
1Q
1S
0V
0]
1^
0_
1a
1b
0B
1="
08"
0#"
0r!
1e!
1a!
1Z!
1K!
1B!
1>!
0;!
0M
1L
0-"
1}!
1^!
0]!
0P!
1@!
0+!
0F"
1/"
0w!
1L!
1l!
1Y!
1/!
1g!
1f!
0L!
0Z!
1A!
12!
#20000
b11110100000000111110000000111010 !
b11110100000000111110010000111010 !
b11110100000000111110010000011010 !
b11110100000000111110010000010010 !
b10110100000000111110010000010010 !
b10010100000000111110010000010010 !
b10010000000000111110010000010010 !
b10010000000001111110010000010010 !
b10010000000001110110010000010010 !
b10010000000001110111010000010010 !
b10010000000001110111011000010010 !
b10010000000001110111011100010010 !
b10010000000001110111011100010110 !
b10010000000001110111011100010111 !
1,!
14!
05!
03!
1'!
1(!
1.!
1P
1R
0S
1V
0^
0a
0b
1B
0="
18"
0'"
1r!
1h!
0g!
0e!
0a!
1\!
1Z!
0B!
0>!
1=!
02!
0L
0~!
0z!
1y!
1w!
1S!
1P!
0D!
17!
0;"
0^!
1]!
1I!
0A!
0/!
0l!
0@!
0I!
1c!
1M!
1j
1<
0M!
0j
0<
#30000
b10010000010001110111011100010111 !
b10010000011001110111011100010111 !
b10010000011101110111011100010111 !
b10010000011111110111011100010111 !
b10010000011111100111011100010111 !
b10010000011111100111011101010111 !
b10011000011111100111011101010111 !
b10011010011111100111011101010111 !
b10011010011111100101011101010111 !
b11011010011111100101011101010111 !
b11111010011111100101011101010111 !
b11111110011111100101011101010111 !
b11111110011111101101011101010111 !
b11111110011111101100011101010111 !
1d
0P
0Q
1S
0T
1W
1X
1Y
1Z
1]
1^
1_
1a
1b
0B
#40000
b11101110011111101100011101010111 !
b11101111011111101100011101010111 !
b11101111011111101100011111010111 !
b11101111011111101000011111010111 !
b11101111011110101000011111010111 !
b11101111011110101000010111010111 !
b11101111011110101000010011010111 !
b11101111001110101000010011010111 !
b11101111000110101000010011010111 !
b11101111000100101000010011010111 !
b11101111000100111000010011010111 !
b11100111000100111000010011010111 !
b11100111000100111010010011010111 !
b11100111000100110010010011010111 !
b11100111000100110011010011010111 !
1-!
0'!
0(!
1P
1Q
0R
0S
1T
0V
0W
0Y
0Z
1\
0_
0`
1B
#50000
b11100111100100110011010011010111 !
b11100111100100110011010011000111 !
b11100111100100110011010011000101 !
b11100111100100110011000011000101 !
b11100111100100110011000011100101 !
b11100111100100110011000011100100 !
b11100111100000110011000011100100 !
b11100111100000110011000010100100 !
b11100101100000110011000010100100 !
b10100101100000110011000010100100 !
b10100001100000110011000010100100 !
b10110001100000110011000010100100 !
b10110001100000110011000110100100 !
b10110001110000110011000110100100 !
b10110001110000111011000110100100 !
0,!
0)!
01!
13!
0d
1'!
0.!
1S
0X
1Z
1[
0]
0^
1`
0b
0B
1="
09"
15"
0)"
1'"
1!"
0h!
0f!
0c!
0_!
0\!
0Z!
0K!
1B!
0=!
1;!
19!
1:"
0}!
1z!
0y!
0P!
07!
16!
1D!
1~!
0S!
1>"
1;"
0:"
1*"
0]!
0;!
0!"
#60000
b10110001110000111011100110100100 !
b10110001110000111011100110100000 !
b10010001110000111011100110100000 !
b10010000110000111011100110100000 !
b10010000110000111011100100100000 !
b10010000110000111111100100100000 !
b10010000110001111111100100100000 !
b10010000110011111111100100100000 !
b10011000110011111111100100100000 !
b10011000110011111110100100100000 !
b10011000010011111110100100100000 !
b10011000010011111110100100000000 !
b10011000010011111110100100000001 !
b10011000010011111110100101000001 !
b11011000010011111110100101000001 !
b11011000010011110110100101000001 !
1,!
04!
03!
1d
0-!
1O
0P
1R
0S
1V
1W
0[
0\
1_
0a
1b
1B
1A"
0="
19"
1)"
1!"
1f!
1a!
1_!
1Z!
1R!
1K!
1J!
0B!
09!
0/"
0~!
0z!
0w!
0v!
0D!
06!
0;"
0*"
0Y!
1J
0>"
1;"
1b!
1L!
1;!
0!"
0Z!
#70000
b11011000010011110110101101000001 !
b11011000011011110110101101000001 !
b11011000011011110100101101000001 !
b11011000011011110100101101010001 !
b11011000011011110100101101010011 !
b11011000011011110100111101010011 !
b11011000011111110100111101010011 !
b11011010011111110100111101010011 !
b11001010011111110100111101010011 !
b11001010011111110100011101010011 !
b11001010011111110100011101010111 !
b11001010011111110100011111010111 !
b11001010011110110100011111010111 !
b11001010111110110100011111010111 !
b11001010111110110100011111110111 !
b11001010111110110100011111110110 !
b10001010111110110100011111110110 !
b10001010111110111100011111110110 !
0,!
1)!
14!
11!
13!
1-!
1(!
1.!
0O
0Q
1S
0V
1X
1Y
1[
1]
0`
0b
0B
0A"
05"
1#"
0f!
0a!
0_!
1Z!
0R!
0J!
1B!
0;!
19!
1}!
1]!
1P!
1@!
16!
1/"
1~!
1v!
0L!
1D!
0b!
1Y!
0J
1l!
0Z!
#80000
b10001110111110111100011111110110 !
b10001110111110111100011011110110 !
b10001110101110111100011011110110 !
b10001111101110111100011011110110 !
b10001111101110111100011010110110 !
b10001111100110111100011010110110 !
b10001111100110111100011010100110 !
b10001111100110111100011010100100 !
b10001111100010111100011010100100 !
b10001101100010111100011010100100 !
b10011101100010111100011010100100 !
b10011101100010111100111010100100 !
b10011101100010111100111000100100 !
b11011101100010111100111000100100 !
b11011101100010110100111000100100 !
0)!
01!
0d
0-!
0'!
1O
0S
0X
0Y
0Z
1\
0]
1^
1`
1b
1B
1="
0;"
1:"
0)"
0#"
0}!
1z!
0]!
0P!
0K!
0@!
09"
15"
1w!
0l!
1>"
1*"
1;"
0:"
#90000
b11011101100010100100111000100100 !
b11011101100010100000111000100100 !
b11010101100010100000111000100100 !
b11010101100010100001111000100100 !
b11010101100010100011111000100100 !
b11010101100010100011101000100100 !
b11010101100010100011101000100000 !
b11010101100010100011101000000000 !
b11010101100010100011101100000000 !
b11010100100010100011101100000000 !
b11010100100010100011101101000000 !
b11010100100010100011101101010000 !
b11010110100010100011101101010000 !
b11010110100010100011001101010000 !
b11010110100010100011001111010000 !
b10010110100010100011001111010000 !
04!
11!
03!
1d
1-!
1'!
0.!
0O
1P
1Q
0R
0T
0\
1]
0_
0b
0B
0="
19"
08"
16"
05"
1-"
0'"
0~!
0z!
0w!
0r!
1n!
1P!
0B!
1=!
09!
06!
0N
0>"
0*"
1}!
1l!
1]!
1K!
0;"
0E!
1+!
1;"
0+!
1o!
#100000
b10010110100010100011001111011000 !
b10010110100010100011000111011000 !
b10010110000010100011000111011000 !
b10010110000010100011000111011001 !
b10010010000010100011000111011001 !
b10010010010010100011000111011001 !
b10010010011010100011000111011001 !
b10010010011010100011000111011011 !
b10010010011110100011000111011011 !
b10010010011110100010000111011011 !
b10010010011110100000000111011011 !
b10010010011110100000010111011011 !
b10010010011110100000010111111011 !
b10010010011110100000010011111011 !
b10010011011110100000010011111011 !
b10010001011110100000010011111011 !
b10010001011110100000010001111011 !
1,!
1)!
15!
13!
0-!
0'!
0(!
1.!
0P
0Q
1X
1Y
1Z
0[
1\
0]
0^
1B
06"
1$"
1r!
1h!
1g!
1e!
1_!
1\!
1Z!
1E!
0=!
1N
0-"
1z!
0o!
1^!
0]!
0P!
1~!
0n!
1i!
0l!
0g!
1f!
0^!
1]!
1@!
0i!
#110000
b10010001011111100000010001111011 !
b10000001011111100000010001111011 !
b10000001011111101000010001111011 !
b10000001011111111000010001111011 !
b10000001011111111000010001101011 !
b10000001011111111000110001101011 !
b11000001011111111000110001101011 !
b11000001011111111000111001101011 !
b11000001011111111000111001101010 !
b11000101011111111000111001101010 !
b11000101001111111000111001101010 !
b11000101000111111000111001101010 !
b11000101000111111001111001101010 !
b11000100000111111001111001101010 !
b11000110000111111001111001101010 !
0,!
01!
1(!
1O
1P
1S
1T
1V
0Y
0Z
0\
1]
1^
0`
1b
0B
1="
09"
15"
1)"
1'"
0$"
0r!
0h!
1g!
0f!
1a!
0\!
0Z!
1J!
1B!
1>!
1;!
1L
0/"
1*"
0}!
1s!
0Y!
1P!
0D!
0*"
1i!
0]!
1}!
1Z!
#120000
b11000110000111011001111001101010 !
b11100110000111011001111001101010 !
b11100110000111011101111001101010 !
b11101110000111011101111001101010 !
b11101110000111011101111001101110 !
b11101110000111011101111000101110 !
b11101110000111011101111000100110 !
b11101110000111011101101000100110 !
b11101110000111011101101000000110 !
b11101110000111011101101100000110 !
b11101110000110011101101100000110 !
b11101110000110001101101100000110 !
b10101110000110001101101100000110 !
b10101110000110001101101100000111 !
b10101010000110001101101100000111 !
b10101010010110001101101100000111 !
b10101011010110001101101100000111 !
b10101001010110001101101100000111 !
1,!
14!
05!
03!
0d
1'!
0.!
1R
0T
0U
0V
1Z
1\
0]
0^
1_
1a
0b
1B
0="
19"
05"
10"
0'"
1r!
1h!
0g!
0e!
0a!
1\!
1R!
0J!
0B!
0>!
0L
1F"
0~!
0z!
1y!
0v!
1S!
0P!
1D!
17!
1>"
1b!
1^!
1J
0>"
0;"
1f!
0b!
0^!
1]!
0}!
0i!
#130000
b10101001010010001101101100000111 !
b10101001010010001101100100000111 !
b10101001010010001100100100000111 !
b10101001010010101100100100000111 !
b10001001010010101100100100000111 !
b10001001010010101000100100000111 !
b10001001010010101000100100000011 !
b10001001010010101000100100001011 !
b10001001010010101000100100101011 !
b10001001010010101000100100101010 !
b10001101010010101000100100101010 !
b10001101000010101000100100101010 !
b10001111000010101000100100101010 !
0,!
04!
15!
13!
0(!
0P
0R
1U
0X
0Z
1]
1^
0a
0B
1="
09"
15"
00"
1'"
0r!
0h!
1e!
1c!
1a!
0\!
0R!
1J!
1B!
1>!
1L
0F"
1~!
1z!
0y!
1v!
0S!
1P!
0D!
07!
1;"
0J
1/!
1g!
0f!
0]!
1}!
0c!
1i!
#140000
b10001111000010100000100100101010 !
b10001111000010100000100100111010 !
b10001111000010100000100101111010 !
b10001111000010100000110101111010 !
b10001111000010110000110101111010 !
b11001111000010110000110101111010 !
b11001110000010110000110101111010 !
b11001110000010110000111101111010 !
b11001110000010110001111101111010 !
b11001110000010010001111101111010 !
b11001110000010010001111101110010 !
b11001110000010010001111101110011 !
b11001010000010010001111101110011 !
b11001010010010010001111101110011 !
1,!
05!
11!
1d
1(!
1.!
1P
0S
1T
0U
1Z
0\
0^
1b
1B
1@"
0="
19"
05"
10"
0'"
1$"
1r!
1h!
0g!
1f!
0a!
0_!
1\!
0J!
0>!
0;!
19!
0N
1M
0L
1F"
0;"
1:"
1/"
1-"
0~!
1y!
1w!
1]!
1Y!
0P!
0s!
0i!
1D!
0/!
1;"
0:"
00"
#150000
b11001010110010010001111101110011 !
b11001010110010010001111101110001 !
b11001010110010010011111101110001 !
b11011010110010010011111101110001 !
b11010010110010010011111101110001 !
b11010010110010010011111001110001 !
b11010010110011010011111001110001 !
b11010010110111010011111001110001 !
b11110010110111010011111001110001 !
b11110010110111010111111001110001 !
b11110010110111010111111001010001 !
b11110010110111011111111001010001 !
b11110010110111001111111001010001 !
b10110010110111001111111001010001 !
b10110011110111001111111001010001 !
b10110111110111001111111001010001 !
b10110111100111001111111001010001 !
0)!
03!
0'!
1Q
1R
1S
0T
1V
1X
0Z
1[
1\
1^
0_
1`
1a
0b
0B
1'"
0$"
0z!
0y!
0h!
0e!
1a!
0]!
1P!
1J!
0@!
1=!
0M
1L
0F"
1A"
0@"
0w!
1n!
1_!
0\!
1R!
0B!
09!
1N
1L!
1B"
1o!
1]!
#160000
b10110101100111001111111001010001 !
b10110101100111001111111001000001 !
b10110101100111001111101001000001 !
b10110101100111001111100001000001 !
b10110101100111001110100001000001 !
b10110101100111001110100001000000 !
b10110101100111001100100001000000 !
b10100101100111001100100001000000 !
b10100101100111001100100101000000 !
b10000101100111001100100101000000 !
b10000101100111001000100101000000 !
b10000101100111001000100101100000 !
b10000100100111001000100101100000 !
0,!
01!
13!
1'!
0(!
0.!
0P
0Q
0R
0\
0]
0`
0a
1B
0A"
09"
0)"
0'"
1!"
0f!
0Z!
0R!
0K!
0J!
1B!
0=!
1;!
19!
0L
0B"
0-"
0}!
0n!
1b!
0]!
0P!
0D!
0;"
1:"
1z!
1y!
0L!
17!
1;"
0:"
1*"
1L!
0;!
0!"
0o!
#170000
b10000100100101001000100101100000 !
b10000100100101001000100111100000 !
b10000100101101001000100111100000 !
b10000100101101001000100111100100 !
b10000100101101001000100110100100 !
b10000100101101101000100110100100 !
b10000100101101101000100110101100 !
b10000100001101101000100110101100 !
b10000100001100101000100110101100 !
b10000100001000101000100110101100 !
b10000000001000101000100110101100 !
b10000000001000101000100110111100 !
b10000000001000101000110110111100 !
b10000000001000101000110110111101 !
b10000000001000101100110110111101 !
b10000001001000101100110110111101 !
1,!
14!
15!
11!
0d
1-!
1.!
1R
1U
0V
0W
0X
1Y
0[
1\
0^
0B
19"
18"
1)"
1'"
1!"
1g!
0a!
1Z!
1K!
1J!
1G!
0B!
1=!
09!
1M
1~!
0y!
0L!
1D!
07!
1:"
0b!
1]!
0*"
1}!
1l!
0:"
0l!
0!"
#180000
b10000001001000101100110110111111 !
b10001001001000101100110110111111 !
b10001001001000100100110110111111 !
b10001001001000110100110110111111 !
b11001001001000110100110110111111 !
b11001001001000110100110110011111 !
b11001001001010110100110110011111 !
b11001001001010110100110100011111 !
b11001001000010110100110100011111 !
b11001001000010110100110100010111 !
b11001001000011110100110100010111 !
b11001001000011110100110100000111 !
b11001001000011110100100100000111 !
b11001001000011110100100100000110 !
b11001000000011110100100100000110 !
0,!
1)!
05!
01!
03!
0-!
0.!
0S
1T
1V
1W
0Y
0\
1_
1b
1B
1A"
09"
15"
0r!
1h!
0g!
1e!
0_!
0Z!
0K!
0J!
0G!
1B!
1?!
1;!
19!
0N
0M
0;"
0}!
0z!
1y!
1s!
1^!
0]!
17!
1F"
0/"
0~!
0v!
0Y!
1J
1*"
1i!
1S!
1/!
1;"
1f!
1}!
0;!
0*"
1Z!
1K
0i!
#190000
b11001000000011110100000100000110 !
b11001000010011110100000100000110 !
b11001010010011110100000100000110 !
b11001010010011110100001100000110 !
b11001010010011110101001100000110 !
b11001010010011110111001100000110 !
b11011010010011110111001100000110 !
b11011010010011110111001100000010 !
b11011010010011110111001101000010 !
b11011010010011110011001101000010 !
b10011010010011110011001101000010 !
b10011010010001110011001101000010 !
b10011010010001110011001111000010 !
b10011010010001110011001111001010 !
b10011010010001110011001111001011 !
b10011011010001110011001111001011 !
1,!
04!
15!
1d
1-!
1(!
0O
1P
1Q
0R
0W
1Z
1\
1]
1`
0b
0B
0A"
1="
19"
16"
05"
10"
0)"
0'"
1r!
0h!
1g!
0f!
1_!
1\!
1R!
1K!
1J!
0E!
1>!
1N
1/"
0y!
0S!
1P!
0D!
16!
0;"
0^!
1Y!
0J
0/!
1*!
1;"
1i!
1]!
1L!
1@!
00"
0K
1V!
0*!
1m
19
0V!
0m
09
#200000
b10011011010001110011001011001011 !
b10111011010001110011001011001011 !
b10111011110001110011001011001011 !
b10111011110101110011001011001011 !
b10111111110101110011001011001011 !
b10110111110101110011001011001011 !
b10110111110101111011001011001011 !
b10110111110100111011001011001011 !
b10110111110100111011011011001011 !
b10110111100100111011011011001011 !
b10110111100100111011010011001011 !
b10110111100100111010010011001011 !
b10110111100100111000010011001011 !
b10110111100100111000010010001011 !
b10110111100100111100010010001011 !
b11110111100100111100010010001011 !
b11110111100110111100010010001011 !
b11110111100110111100010010000011 !
b11110111100110111100010010000010 !
b11110110100110111100010010000010 !
0,!
05!
0d
0'!
0(!
1.!
0P
0Q
1R
1S
0V
1W
1X
0Z
1[
0\
1^
0_
1a
1b
1B
0="
09"
08"
06"
1'"
1$"
0r!
1h!
0g!
1f!
0e!
0_!
0\!
0Z!
0R!
0K!
0J!
1E!
0B!
0?!
0>!
0=!
09!
0N
0F"
1>"
0;"
0/"
1z!
0Y!
0P!
1J
0>"
1;"
1%"
0i!
0f!
1^!
0]!
0L!
0}!
1;!
1Z!
1i!
#210000
b11110110100110011100010010000010 !
b11110110100110011100010010000000 !
b11110110100110001100010010000000 !
b11110110100110001100010010100000 !
b11110110100110001100010010110000 !
b11100110100110001100010010110000 !
b11100110100110001100010000110000 !
b11100110100110001100010100110000 !
b11100110000110001100010100110000 !
b11100010000110001100010100110000 !
b11100010000111001100010100110000 !
b11100010000111001101010100110000 !
0)!
11!
13!
0-!
1'!
1P
0T
0U
1V
0[
0^
0`
0B
1-"
0'"
0$"
1}!
1y!
0s!
0h!
1a!
0^!
1]!
0Z!
1P!
1K!
0@!
1=!
06!
1F"
19"
16"
1/"
0%"
1w!
1v!
1l!
1Y!
1D!
0;!
0J
1r!
1_!
1L!
1B!
19!
1N
1!"
0i!
0L!
0;"
1:"
#220000
b11100010001111001101010100110000 !
b11100010001111001101110100110000 !
b11100010001111001101110100110100 !
b11100010001011001101110100110100 !
b11101010001011001101110100110100 !
b11101010001011000101110100110100 !
b11101010001011000101100100110100 !
b11101010011011000101100100110100 !
b11101010011011000101101100110100 !
b11101010011011000001101100110100 !
b10101010011011000001101100110100 !
b10101010011011000001101100110101 !
b10101010011011000001101100110111 !
b10101010011011010001101100110111 !
b10101010011011010001101100010111 !
b10101010011011010001101100000111 !
b10101010111011010001101100000111 !
b10101110111011010001101100000111 !
1,!
1)!
14!
01!
03!
1(!
0.!
1O
0R
0S
1T
0X
1Y
1Z
1[
1^
1_
0b
1B
06"
1)"
0!"
1h!
1f!
0a!
1\!
1Z!
1R!
0B!
0=!
09!
0:"
0-"
0z!
1s!
1^!
0]!
0P!
0/"
0w!
0v!
1S!
0l!
1b!
0Y!
1J
0b!
0^!
1]!
0}!
1@!
1;!
10"
#230000
b10001110111011010001101100000111 !
b10001110111011010011101100000111 !
b10001110111011010011101100001111 !
b10001110111011010011101000001111 !
b10000110111011010011101000001111 !
b10000110111011010011100000001111 !
b10000110111011010111100000001111 !
b10000110111011010111100000001110 !
b10000110111011010111100000001100 !
b10000110111011000111100000001100 !
0,!
0)!
15!
0'!
0(!
1Q
1R
0T
0_
0a
0B
1A"
1@"
09"
18"
16"
00"
1'"
0h!
1e!
1c!
0_!
0Z!
0R!
1B!
19!
1M
1;"
1-"
0s!
1^!
0]!
1P!
0@!
07!
0F"
1/"
1~!
1v!
1Y!
0J
1/!
0;"
1:"
1g!
0f!
0;!
1*"
14"
1N!
1A!
12!
1<!
1i!
1g
1?
0<!
1+"
1."
1Q!
1d!
1`!
18!
0g
1z
1{
1k
1q
1p
1f
0?
1,
1+
1;
15
16
1@
1m!
1r
14
